digraph structs {
    Universite -> Etudiants
    Universite -> Profs
    Universite -> Cours

    Profs -> Cours
    Profs -> Etudiants
    Profs -> Universite

    Cours -> Profs
    Cours -> Etudiants
    Cours -> Universite

    Etudiants -> Profs
    Etudiants -> Cours
    Etudiants -> Universite
}