digraph structs {
    rankdir=LR;
    node [shape=record];

    stack [
           label="... | <arr> int[] nombres | | | ..."
    ]

    heap [
          label="
          <misc> ... |
          <0> int 10 |
          <1> int 20 |
          <2> int 30 |
          <3> int 40 |
          <4> int 50 |
          |
          |
          |
          ..."
    ]

    stack:arr -> heap:0
}
